/nethome/wmartin45/cse6230fa17-proj1-cstevens34
deepthought2
Mon Sep 18 23:03:57 EDT 2017
./proj1 -i 20 -f data.xyz -o out.xyz -t 32
allocating 5534728 space for computations
Number of particles: 10000
Number of intervals to simulate: 20
Using random seed: 23
Using thread count: 32
With 10000 particles of radius 1 and a box width of 59.386291, the volume fraction is 0.2.
The interaction volume is 33.5103, so we expect 1.6 interactions per particle, 8000 overall.
time: 6.70164, 6.70164
Done interval: 0
time: 6.69444, 13.433
time: 6.70361, 20.1729
time: 6.70776, 26.9166
time: 6.71117, 33.6639
time: 6.82626, 40.5263
Done interval: 5
time: 6.73272, 47.2946
time: 6.75401, 54.0843
time: 6.70983, 60.8321
time: 6.71009, 67.5781
time: 6.71121, 74.3254
Done interval: 10
time: 6.71098, 81.0791
time: 6.74259, 87.8579
time: 6.71273, 94.6068
time: 6.73, 101.373
time: 6.71067, 108.12
Done interval: 15
time: 6.72679, 114.883
time: 6.70213, 121.621
time: 6.70148, 128.359
time: 6.71434, 135.11
Time: 135.145 for 20 intervals

real	2m15.340s
user	71m37.732s
sys	0m0.740s
Mon Sep 18 23:06:13 EDT 2017
